{"count":725,"next":"https://spacelaunchnow.me/api/3.5.0/astronaut/?limit=10&offset=10","previous":null,"results":[{"id":32,"url":"https://spacelaunchnow.me/api/ll/2.1.0/astronaut/32/","name":"John Young","status":{"id":11,"name":"Deceased"},"type":{"id":2,"name":"Government"},"date_of_birth":"1930-09-24","date_of_death":"2018-01-05","nationality":"American","bio":"John Watts Young was an American astronaut, naval officer and aviator, test pilot, and aeronautical engineer. He became the ninth person to walk on the Moon as Commander of the Apollo 16 mission in 1972. Young enjoyed the longest career of any astronaut, becoming the first person to fly six space missions (with seven launches, counting his lunar liftoff) over the course of 42 years of active NASA service. He is the only person to have piloted, and been commander of, four different classes of spacecraft: Gemini, the Apollo Command/Service Module, the Apollo Lunar Module, and the Space Shuttle.\r\n\r\nIn 1965, Young flew on the first manned Gemini mission, and commanded another Gemini mission the next year. In 1969 during Apollo 10, he became the first person to fly solo around the Moon. He drove the Lunar Roving Vehicle on the Moon's surface during Apollo 16, and is one of only three people to have flown to the Moon twice. He also commanded two Space Shuttle flights, including its first launch in 1981, and served as Chief of the Astronaut Office from 1974 to 1987. Young retired from NASA in 2004. He died on January 5, 2018.","twitter":null,"instagram":null,"wiki":"https://en.wikipedia.org/wiki/John_Young_(astronaut)","agency":{"id":44,"url":"https://spacelaunchnow.me/api/ll/2.1.0/agencies/44/","name":"National Aeronautics and Space Administration","featured":true,"type":"Government","country_code":"USA","abbrev":"NASA","description":"The National Aeronautics and Space Administration is an independent agency of the executive branch of the United States federal government responsible for the civilian space program, as well as aeronautics and aerospace research. NASA have many launch facilities but most are inactive. The most commonly used pad will be LC-39B at Kennedy Space Center in Florida.","administrator":"Administrator: Bill Nelson","founding_year":"1958","launchers":"Space Shuttle | SLS","spacecraft":"Orion","parent":null,"image_url":"https://spacelaunchnow-prod-east.nyc3.digitaloceanspaces.com/media/agency_images/national2520aeronautics2520and2520space2520administration_image_20190207032448.jpeg"},"profile_image":"https://spacelaunchnow-prod-east.nyc3.digitaloceanspaces.com/media/astronaut_images/john2520young_image_20190426143657.jpeg","profile_image_thumbnail":"https://spacelaunchnow-prod-east.nyc3.digitaloceanspaces.com/media/astronaut_images/john_young_thumbnail_20220911033705.jpeg","last_flight":"1983-11-28T16:00:00Z","first_flight":"1965-03-23T14:24:00Z"},{"id":86,"url":"https://spacelaunchnow.me/api/ll/2.1.0/astronaut/86/","name":"Chen Dong","status":{"id":1,"name":"Active"},"type":{"id":2,"name":"Government"},"date_of_birth":"1978-12-12","date_of_death":null,"nationality":"Chinese","bio":"Chen Dong (simplified Chinese: 陈冬; traditional Chinese: 陳冬; pinyin: Chén Dōng; born 12 December 1978) is a Chinese pilot and astronaut selected as part of the Shenzhou program.\r\n\r\nHe was selected to fly on the Shenzhou 11 mission in October 2016 with astronaut Jing Haipeng. The two underwent more than 3,000 hours of training before the launch of the spacecraft. On 17 October 2016 On 07:30 local time (23:30 GMT on 16 October), Chen lifted off with Shenzhou 11 for a 33-day space mission to the Tiangong-2 space station as his first spaceflight, launched from the Jiuquan Satellite Launch Center using a Long March 2F launch rocket. The crew landed successfully after the 33 day mission on 18 November 2016, marking China's longest manned space flight to date. The reentry module of the Shenzhou-11 spacecraft landed in Inner Mongolia around 2.15 p.m(China time) after detaching from the space lab on 17 November.","twitter":null,"instagram":null,"wiki":"https://en.wikipedia.org/wiki/Chen_Dong_(astronaut)","agency":{"id":17,"url":"https://spacelaunchnow.me/api/ll/2.1.0/agencies/17/","name":"China National Space Administration","featured":true,"type":"Government","country_code":"CHN","abbrev":"CNSA","description":"The China National Space Administration (CNSA) is the national space agency of the People's Republic of China. It is responsible for the national space program and for planning and development of space activities. CNSA and China Aerospace Corporation (CASC) assumed the authority over space development efforts previously held by the Ministry of Aerospace Industry. The CNSA has many launch sites around China with their orbital sites located in Jiuquan, Xichang, Taiyuan and Wenchang.","administrator":"Administrator: Tang Dengjie","founding_year":"1993","launchers":"","spacecraft":"Shenzhou","parent":null,"image_url":"https://spacelaunchnow-prod-east.nyc3.digitaloceanspaces.com/media/agency_images/china2520national2520space2520administration_image_20190207032431.jpeg"},"profile_image":"https://spacelaunchnow-prod-east.nyc3.digitaloceanspaces.com/media/astronaut_images/chen_dong_image_20220604084758.png","profile_image_thumbnail":"https://spacelaunchnow-prod-east.nyc3.digitaloceanspaces.com/media/astronaut_images/chen_dong_thumbnail_20220911033506.png","last_flight":"2022-06-05T02:44:10Z","first_flight":"2016-10-16T23:30:31Z"},{"id":90,"url":"https://spacelaunchnow.me/api/ll/2.1.0/astronaut/90/","name":"Samantha Cristoforetti","status":{"id":1,"name":"Active"},"type":{"id":2,"name":"Government"},"date_of_birth":"1977-04-26","date_of_death":null,"nationality":"Italian","bio":"Samantha Cristoforetti (born 26 April 1977 in Milan) is an Italian European Space Agency astronaut, Italian Air Force pilot and engineer. She holds the record for the longest uninterrupted spaceflight of a European astronaut (199 days, 16 hours), and until June 2017 held the record for the longest single space flight by a woman until this was broken by Peggy Whitson. She is also the first Italian woman in space. Samantha Cristoforetti is also known as the first person who brewed an espresso in space.","twitter":"https://twitter.com/astrosamantha","instagram":null,"wiki":"https://en.wikipedia.org/wiki/Samantha_Cristoforetti","agency":{"id":27,"url":"https://spacelaunchnow.me/api/ll/2.1.0/agencies/27/","name":"European Space Agency","featured":false,"type":"Multinational","country_code":"AUT,BEL,CZE,DNK,FIN,FRA,DEU,GRC,IRE,ITA,LUZ,NLD,NOR,POL,PRT,ROU,ESP,SWE,CHE,GBR","abbrev":"ESA","description":"The European Space Agency is an intergovernmental organisation of 22 member states. Established in 1975 and headquartered in Paris, France, ESA has a worldwide staff of about 2,000 employees.\r\n\r\nESA's space flight programme includes human spaceflight (mainly through participation in the International Space Station program); the launch and operation of unmanned exploration missions to other planets and the Moon; Earth observation, science and telecommunication; designing launch vehicles; and maintaining a major spaceport, the Guiana Space Centre at Kourou, French Guiana.","administrator":"Director General: Josef Aschbacher","founding_year":"1975","launchers":"","spacecraft":"","parent":null,"image_url":null},"profile_image":"https://spacelaunchnow-prod-east.nyc3.digitaloceanspaces.com/media/astronaut_images/samantha_cristo_image_20210207102548.jpeg","profile_image_thumbnail":"https://spacelaunchnow-prod-east.nyc3.digitaloceanspaces.com/media/astronaut_images/samantha_cristo_thumbnail_20220911033947.jpeg","last_flight":"2022-04-27T07:52:55Z","first_flight":"2014-11-23T21:01:14Z"},{"id":275,"url":"https://spacelaunchnow.me/api/ll/2.1.0/astronaut/275/","name":"Vladimir Vasyutin","status":{"id":11,"name":"Deceased"},"type":{"id":2,"name":"Government"},"date_of_birth":"1952-03-08","date_of_death":"2002-07-19","nationality":"Russian","bio":"Vladimir Vladimirovich Vasyutin (Russian:Влaдимиp Bлaдимиpoвич Васютин, born March 8, 1952, Kharkiv, Kharkiv Oblast, Ukrainian SSR, died July 19, 2002) was a Soviet cosmonaut.\r\n\r\nHe was selected as a cosmonaut on December 1, 1978 (TsPK-6). He retired on February 25, 1986.\r\n\r\nVasyutin was assigned to the TKS program for a new generation of manned military spacecraft that would be docked to the existing Salyut space stations.\r\n\r\nHe flew as the Commander on Soyuz T-14 to the Salyut 7 space station, for part of the long-duration mission Salyut 7 EO-4. He spent 64 days 21 hours 52 minutes in space. The TKS module was already docked to the Salyut and Vasyutin was due to lead an extended programme of military space experiments. However Vasyutin fell ill soon after arriving at the station and was unable to perform his duties. Although he was originally scheduled to have a six-month stay aboard Salyut 7, his illness forced the crew to make an emergency return to Earth after only two months. His illness is said to have been caused by a prostate infection, which had manifested itself as inflammation and a fever.","twitter":null,"instagram":null,"wiki":"https://en.wikipedia.org/wiki/Vladimir_Vasyutin","agency":{"id":63,"url":"https://spacelaunchnow.me/api/ll/2.1.0/agencies/63/","name":"Russian Federal Space Agency (ROSCOSMOS)","featured":true,"type":"Government","country_code":"RUS","abbrev":"RFSA","description":"The Roscosmos State Corporation for Space Activities, commonly known as Roscosmos, is the governmental body responsible for the space science program of the Russian Federation and general aerospace research. Soyuz has many launch locations the Russian sites are Baikonur, Plesetsk and Vostochny however Ariane also purchases the vehicle and launches it from French Guiana.","administrator":"Administrator: Yuri Borisov","founding_year":"1992","launchers":"Soyuz","spacecraft":"Soyuz","parent":null,"image_url":"https://spacelaunchnow-prod-east.nyc3.digitaloceanspaces.com/media/agency_images/russian2520federal2520space2520agency25202528roscosmos2529_image_20190207032459.jpeg"},"profile_image":"https://spacelaunchnow-prod-east.nyc3.digitaloceanspaces.com/media/astronaut_images/vladimir2520vasyutin_image_20181201223746.jpg","profile_image_thumbnail":"https://spacelaunchnow-prod-east.nyc3.digitaloceanspaces.com/media/astronaut_images/vladimir_vasyut_thumbnail_20220911033615.jpeg","last_flight":"1985-09-17T12:38:52Z","first_flight":"1985-09-17T12:38:52Z"},{"id":287,"url":"https://spacelaunchnow.me/api/ll/2.1.0/astronaut/287/","name":"Wang Yaping","status":{"id":1,"name":"Active"},"type":{"id":2,"name":"Government"},"date_of_birth":"1980-01-27","date_of_death":null,"nationality":"Chinese","bio":"Colonel Wang Yaping is a Chinese military pilot and astronaut. Wang was the second female astronaut to be named by the CNSA, and the second Chinese woman in space.\r\n\r\nShe was a candidate for the space mission Shenzhou 9 in 2012. However, Liu Yang was selected over her for the historic mission of the first Chinese female space traveller. Wang was a member of the backup crew for SZ-9.\r\n\r\nWang became the second Chinese female astronaut as a member of the Shenzhou 10 spaceship crew, which orbited the earth in June 2013, and of the Tiangong-1 orbiting space station with which it docked. She was the first member of the crew announced, in April, while the remainder of the crew were announced in June. Wang Yaping was one of two women in space on the 50th anniversary of Vostok 6, the first spaceflight by a woman, Valentina Tereshkova. The other woman in space on 16 June 2013 was Karen Nyberg, an American astronaut aboard the International Space Station. While aboard Tiangong-1, Wang conducted scientific experiments and taught a physics lesson to Chinese students by live television broadcast.","twitter":null,"instagram":null,"wiki":"https://en.wikipedia.org/wiki/Wang_Yaping","agency":{"id":17,"url":"https://spacelaunchnow.me/api/ll/2.1.0/agencies/17/","name":"China National Space Administration","featured":true,"type":"Government","country_code":"CHN","abbrev":"CNSA","description":"The China National Space Administration (CNSA) is the national space agency of the People's Republic of China. It is responsible for the national space program and for planning and development of space activities. CNSA and China Aerospace Corporation (CASC) assumed the authority over space development efforts previously held by the Ministry of Aerospace Industry. The CNSA has many launch sites around China with their orbital sites located in Jiuquan, Xichang, Taiyuan and Wenchang.","administrator":"Administrator: Tang Dengjie","founding_year":"1993","launchers":"","spacecraft":"Shenzhou","parent":null,"image_url":"https://spacelaunchnow-prod-east.nyc3.digitaloceanspaces.com/media/agency_images/china2520national2520space2520administration_image_20190207032431.jpeg"},"profile_image":"https://spacelaunchnow-prod-east.nyc3.digitaloceanspaces.com/media/astronaut_images/wang_yaping_image_20211014075922.jpg","profile_image_thumbnail":"https://spacelaunchnow-prod-east.nyc3.digitaloceanspaces.com/media/astronaut_images/wang_yaping_thumbnail_20220911033654.jpeg","last_flight":"2021-10-15T16:23:56Z","first_flight":"2013-06-11T09:38:02Z"},{"id":556,"url":"https://spacelaunchnow.me/api/ll/2.1.0/astronaut/556/","name":"Robert S. Kimbrough","status":{"id":2,"name":"Retired"},"type":{"id":2,"name":"Government"},"date_of_birth":"1967-06-04","date_of_death":null,"nationality":"American","bio":"Robert Shane Kimbrough is a retired United States Army officer, and a NASA astronaut. He was part of the first group of candidates selected for NASA astronaut training following the Space Shuttle Columbia disaster. Kimbrough is a veteran of two spaceflights, the first being a Space Shuttle flight, and the second being a 6-month mission to the ISS on board a Russian Soyuz craft. He was the commander of the International Space Station for Expedition 50 and later spent 6 months on the ISS as part of the SpaceX Crew-2 mission. He retired from NASA on July 31, 2022.","twitter":"https://twitter.com/astro_kimbrough","instagram":"https://www.instagram.com/astro_kimbrough/","wiki":"https://en.wikipedia.org/wiki/Robert_S._Kimbrough","agency":{"id":44,"url":"https://spacelaunchnow.me/api/ll/2.1.0/agencies/44/","name":"National Aeronautics and Space Administration","featured":true,"type":"Government","country_code":"USA","abbrev":"NASA","description":"The National Aeronautics and Space Administration is an independent agency of the executive branch of the United States federal government responsible for the civilian space program, as well as aeronautics and aerospace research. NASA have many launch facilities but most are inactive. The most commonly used pad will be LC-39B at Kennedy Space Center in Florida.","administrator":"Administrator: Bill Nelson","founding_year":"1958","launchers":"Space Shuttle | SLS","spacecraft":"Orion","parent":null,"image_url":"https://spacelaunchnow-prod-east.nyc3.digitaloceanspaces.com/media/agency_images/national2520aeronautics2520and2520space2520administration_image_20190207032448.jpeg"},"profile_image":"https://spacelaunchnow-prod-east.nyc3.digitaloceanspaces.com/media/astronaut_images/robert_s._kimbr_image_20220911034003.jpeg","profile_image_thumbnail":"https://spacelaunchnow-prod-east.nyc3.digitaloceanspaces.com/media/astronaut_images/robert_s._kimbr_thumbnail_20220911034003.jpeg","last_flight":"2021-04-23T09:49:02Z","first_flight":"2008-11-15T00:55:00Z"},{"id":219,"url":"https://spacelaunchnow.me/api/ll/2.1.0/astronaut/219/","name":"Viktor Patsayev","status":{"id":4,"name":"Lost In Flight"},"type":{"id":2,"name":"Government"},"date_of_birth":"1933-06-19","date_of_death":"1971-06-30","nationality":"Russian","bio":"Viktor Ivanovich Patsayev (Russian: Ви́ктор Ива́нович Паца́ев; 19 June 1933 – 30 June 1971) was a Soviet cosmonaut who flew on the Soyuz 11 mission and was part of the second crew to die during a space flight. On board the space station Salyut 1 he operated the Orion 1 Space Observatory (see Orion 1 and Orion 2 Space Observatories), he became the first man to operate a telescope outside the Earth's atmosphere.\r\n\r\nAfter a normal re-entry, the capsule was opened and the crew was found dead. It was discovered that a valve had opened just prior to leaving orbit that had allowed the capsule's atmosphere to vent away into space, suffocating the crew. One of Patsayev's hands was found to be bruised, and he may have been trying to shut the valve manually at the time he lost consciousness.","twitter":null,"instagram":null,"wiki":"https://en.wikipedia.org/wiki/Viktor_Patsayev","agency":{"id":63,"url":"https://spacelaunchnow.me/api/ll/2.1.0/agencies/63/","name":"Russian Federal Space Agency (ROSCOSMOS)","featured":true,"type":"Government","country_code":"RUS","abbrev":"RFSA","description":"The Roscosmos State Corporation for Space Activities, commonly known as Roscosmos, is the governmental body responsible for the space science program of the Russian Federation and general aerospace research. Soyuz has many launch locations the Russian sites are Baikonur, Plesetsk and Vostochny however Ariane also purchases the vehicle and launches it from French Guiana.","administrator":"Administrator: Yuri Borisov","founding_year":"1992","launchers":"Soyuz","spacecraft":"Soyuz","parent":null,"image_url":"https://spacelaunchnow-prod-east.nyc3.digitaloceanspaces.com/media/agency_images/russian2520federal2520space2520agency25202528roscosmos2529_image_20190207032459.jpeg"},"profile_image":"https://spacelaunchnow-prod-east.nyc3.digitaloceanspaces.com/media/astronaut_images/viktor2520patsayev_image_20181201185617.jpg","profile_image_thumbnail":"https://spacelaunchnow-prod-east.nyc3.digitaloceanspaces.com/media/astronaut_images/viktor_patsayev_thumbnail_20220911033811.jpeg","last_flight":"1971-06-06T07:55:09Z","first_flight":"1971-06-06T07:55:09Z"},{"id":489,"url":"https://spacelaunchnow.me/api/ll/2.1.0/astronaut/489/","name":"Scott Kelly","status":{"id":2,"name":"Retired"},"type":{"id":2,"name":"Government"},"date_of_birth":"1964-02-21","date_of_death":null,"nationality":"American","bio":"Scott Joseph Kelly is an engineer, retired American astronaut, and a retired U.S. Navy Captain. A veteran of four space flights, Kelly commanded the International Space Station (ISS) on Expeditions 26, 45, and 46.\r\n\r\nKelly's first spaceflight was as pilot of Space Shuttle Discovery, during STS-103 in December 1999. This was the third servicing mission to the Hubble Space Telescope, and lasted for just under eight days. Kelly's second spaceflight was as mission commander of STS-118, a 12-day Space Shuttle mission to the International Space Station in August 2007. Kelly's third spaceflight was as commander of Expedition 26 on the ISS. He arrived 9 October 2010, on a Russian Soyuz spacecraft, during Expedition 25, and served as a flight engineer until it ended. He took over command of the station on 25 November 2010, at the start of Expedition 26 which began officially when the spacecraft Soyuz TMA-19 undocked, carrying the previous commander of the station, Douglas H. Wheelock. Expedition 26 ended on 16 March 2011 with the departure of Soyuz TMA-01M. This was Kelly's first long-duration spaceflight.\r\n\r\nIn November 2012, Kelly was selected, along with Mikhail Korniyenko, for a year-long mission to the International Space Station. Their year in space commenced 27 March 2015 with the start of Expedition 43, continued through the entirety of Expeditions 44, and 45, both of which Kelly commanded. He passed command to Timothy Kopra on 29 February 2016, when the ISS 11-month mission ended. He returned to Earth aboard Soyuz TMA-18M on 1 March 2016.","twitter":"https://twitter.com/StationCDRKelly","instagram":"https://www.instagram.com/stationcdrkelly/","wiki":"https://en.wikipedia.org/wiki/Scott_Kelly_(astronaut)","agency":{"id":44,"url":"https://spacelaunchnow.me/api/ll/2.1.0/agencies/44/","name":"National Aeronautics and Space Administration","featured":true,"type":"Government","country_code":"USA","abbrev":"NASA","description":"The National Aeronautics and Space Administration is an independent agency of the executive branch of the United States federal government responsible for the civilian space program, as well as aeronautics and aerospace research. NASA have many launch facilities but most are inactive. The most commonly used pad will be LC-39B at Kennedy Space Center in Florida.","administrator":"Administrator: Bill Nelson","founding_year":"1958","launchers":"Space Shuttle | SLS","spacecraft":"Orion","parent":null,"image_url":"https://spacelaunchnow-prod-east.nyc3.digitaloceanspaces.com/media/agency_images/national2520aeronautics2520and2520space2520administration_image_20190207032448.jpeg"},"profile_image":"https://spacelaunchnow-prod-east.nyc3.digitaloceanspaces.com/media/astronaut_images/scott_kelly_image_20220911033557.jpeg","profile_image_thumbnail":"https://spacelaunchnow-prod-east.nyc3.digitaloceanspaces.com/media/astronaut_images/scott_kelly_thumbnail_20220911033557.jpeg","last_flight":"2015-03-27T19:42:57Z","first_flight":"1999-12-20T00:50:00Z"},{"id":495,"url":"https://spacelaunchnow.me/api/ll/2.1.0/astronaut/495/","name":"Daniel C. Burbank","status":{"id":2,"name":"Retired"},"type":{"id":2,"name":"Government"},"date_of_birth":"1961-07-27","date_of_death":null,"nationality":"American","bio":"Daniel Christopher Burbank is a retired American astronaut and a veteran of two Space Shuttle missions. Burbank, a Captain in the United States Coast Guard, is the second Coast Guard astronaut after Bruce Melnick.\r\n\r\nBurbank was born in Manchester, Connecticut, and raised in Tolland, Connecticut, where he graduated from Tolland High School. He attended Fairfield University his freshman year before transferring to the United States Coast Guard Academy, where he earned his commission in 1985. In 1987, he went through flight training and became an instructor pilot, serving at various Coast Guard stations at Coast Guard Air Station Elizabeth City, Coast Guard Air Station Cape Cod, and Coast Guard Air Station Sitka.","twitter":"https://twitter.com/AstroCoastie","instagram":null,"wiki":"https://en.wikipedia.org/wiki/Daniel_C._Burbank","agency":{"id":44,"url":"https://spacelaunchnow.me/api/ll/2.1.0/agencies/44/","name":"National Aeronautics and Space Administration","featured":true,"type":"Government","country_code":"USA","abbrev":"NASA","description":"The National Aeronautics and Space Administration is an independent agency of the executive branch of the United States federal government responsible for the civilian space program, as well as aeronautics and aerospace research. NASA have many launch facilities but most are inactive. The most commonly used pad will be LC-39B at Kennedy Space Center in Florida.","administrator":"Administrator: Bill Nelson","founding_year":"1958","launchers":"Space Shuttle | SLS","spacecraft":"Orion","parent":null,"image_url":"https://spacelaunchnow-prod-east.nyc3.digitaloceanspaces.com/media/agency_images/national2520aeronautics2520and2520space2520administration_image_20190207032448.jpeg"},"profile_image":"https://spacelaunchnow-prod-east.nyc3.digitaloceanspaces.com/media/astronaut_images/daniel_c._burba_image_20220911034116.jpeg","profile_image_thumbnail":"https://spacelaunchnow-prod-east.nyc3.digitaloceanspaces.com/media/astronaut_images/daniel_c._burba_thumbnail_20220911034116.jpeg","last_flight":"2011-11-14T04:14:00Z","first_flight":"2000-09-08T12:45:47Z"},{"id":710,"url":"https://spacelaunchnow.me/api/ll/2.1.0/astronaut/710/","name":"Luke Delaney","status":{"id":3,"name":"In-Training"},"type":{"id":2,"name":"Government"},"date_of_birth":"1979-01-01","date_of_death":null,"nationality":"American","bio":"Luke Delaney is a retired US Marine Corps major who grew up in Debary, Florida. He holds a degree in mechanical engineering from University of North Florida and a master’s degree in aerospace engineering from the Naval Postgraduate School. He is a distinguished naval aviator who participated in exercises throughout the Asia Pacific region and conducted combat missions in support of Operation Enduring Freedom. As a test pilot, he executed numerous flights evaluating weapon systems integration, and he served as a test pilot instructor. Delaney most recently worked as a research pilot at NASA’s Langley Research Center, in Hampton, Virginia, where he supported airborne science missions. Including his NASA career, Delaney logged more than 3,700 flight hours on 48 models of jet, propeller, and rotary wing aircraft.\r\n\r\nExact date of birth unknown.","twitter":null,"instagram":null,"wiki":"https://en.wikipedia.org/wiki/Luke_Delaney_(astronaut)","agency":{"id":44,"url":"https://spacelaunchnow.me/api/ll/2.1.0/agencies/44/","name":"National Aeronautics and Space Administration","featured":true,"type":"Government","country_code":"USA","abbrev":"NASA","description":"The National Aeronautics and Space Administration is an independent agency of the executive branch of the United States federal government responsible for the civilian space program, as well as aeronautics and aerospace research. NASA have many launch facilities but most are inactive. The most commonly used pad will be LC-39B at Kennedy Space Center in Florida.","administrator":"Administrator: Bill Nelson","founding_year":"1958","launchers":"Space Shuttle | SLS","spacecraft":"Orion","parent":null,"image_url":"https://spacelaunchnow-prod-east.nyc3.digitaloceanspaces.com/media/agency_images/national2520aeronautics2520and2520space2520administration_image_20190207032448.jpeg"},"profile_image":"https://spacelaunchnow-prod-east.nyc3.digitaloceanspaces.com/media/astronaut_images/luke_delaney_image_20211206185357.jpg","profile_image_thumbnail":"https://spacelaunchnow-prod-east.nyc3.digitaloceanspaces.com/media/astronaut_images/luke_delaney_thumbnail_20220911033538.jpeg","last_flight":null,"first_flight":null}]}